\relax 
\providecommand\hyper@newdestlabel[2]{}
\providecommand\HyperFirstAtBeginDocument{\AtBeginDocument}
\HyperFirstAtBeginDocument{\ifx\hyper@anchor\@undefined
\global\let\oldcontentsline\contentsline
\gdef\contentsline#1#2#3#4{\oldcontentsline{#1}{#2}{#3}}
\global\let\oldnewlabel\newlabel
\gdef\newlabel#1#2{\newlabelxx{#1}#2}
\gdef\newlabelxx#1#2#3#4#5#6{\oldnewlabel{#1}{{#2}{#3}}}
\AtEndDocument{\ifx\hyper@anchor\@undefined
\let\contentsline\oldcontentsline
\let\newlabel\oldnewlabel
\fi}
\fi}
\global\let\hyper@last\relax 
\gdef\HyperFirstAtBeginDocument#1{#1}
\providecommand\HyField@AuxAddToFields[1]{}
\providecommand\HyField@AuxAddToCoFields[2]{}
\@writefile{toc}{\contentsline {section}{Programmazione Grafica per il Tempo Reale: progetto Lux Occidit}{1}{section*.1}}
\newlabel{header-n0}{{}{1}{Programmazione Grafica per il Tempo Reale: progetto Lux Occidit}{section*.1}{}}
\@writefile{toc}{\contentsline {subsection}{Introduzione}{1}{section*.2}}
\newlabel{header-n3}{{}{1}{Introduzione}{section*.2}{}}
\@writefile{lof}{\contentsline {figure}{\numberline {1}{\ignorespaces scena principale.\relax }}{1}{figure.caption.3}}
\providecommand*\caption@xref[2]{\@setref\relax\@undefined{#1}}
\newlabel{img:scena_principale}{{1}{1}{scena principale.\relax }{figure.caption.3}{}}
\@writefile{toc}{\contentsline {subsection}{Luci e modello di illuminazione}{2}{section*.4}}
\newlabel{header-n10}{{}{2}{Luci e modello di illuminazione}{section*.4}{}}
\@writefile{toc}{\contentsline {subsubsection}{Luci}{2}{section*.5}}
\newlabel{header-n11}{{}{2}{Luci}{section*.5}{}}
\@writefile{toc}{\contentsline {subsubsection}{Cook-Torrance e multiple lights}{2}{section*.6}}
\newlabel{header-n34}{{}{2}{Cook-Torrance e multiple lights}{section*.6}{}}
\@writefile{toc}{\contentsline {paragraph}{Geometry function}{3}{section*.7}}
\newlabel{header-n71}{{}{3}{Geometry function}{section*.7}{}}
\@writefile{toc}{\contentsline {paragraph}{Fresnel}{3}{section*.8}}
\newlabel{header-n85}{{}{3}{Fresnel}{section*.8}{}}
\@writefile{lof}{\contentsline {figure}{\numberline {2}{\ignorespaces felce con effetto bloom.\relax }}{4}{figure.caption.10}}
\newlabel{img:felce_bloom}{{2}{4}{felce con effetto bloom.\relax }{figure.caption.10}{}}
\@writefile{toc}{\contentsline {subsection}{Felci}{4}{section*.9}}
\newlabel{header-n95}{{}{4}{Felci}{section*.9}{}}
\@writefile{toc}{\contentsline {subsubsection}{Alpha e Fragment discard}{4}{section*.11}}
\newlabel{header-n98}{{}{4}{Alpha e Fragment discard}{section*.11}{}}
\@writefile{toc}{\contentsline {subsubsection}{Bloom effect}{4}{section*.12}}
\newlabel{header-n103}{{}{4}{Bloom effect}{section*.12}{}}
\@writefile{toc}{\contentsline {subsubsection}{Color variation}{5}{section*.13}}
\newlabel{header-n132}{{}{5}{Color variation}{section*.13}{}}
\@writefile{toc}{\contentsline {subsection}{Personaggio}{5}{section*.15}}
\newlabel{header-n137}{{}{5}{Personaggio}{section*.15}{}}
\@writefile{toc}{\contentsline {subsubsection}{Animazione e cinematica diretta}{5}{section*.16}}
\newlabel{header-n140}{{}{5}{Animazione e cinematica diretta}{section*.16}{}}
\@writefile{lof}{\contentsline {figure}{\numberline {3}{\ignorespaces il player durante l'animazione della camminata.\relax }}{6}{figure.caption.14}}
\newlabel{img:animazione_personaggio}{{3}{6}{il player durante l'animazione della camminata.\relax }{figure.caption.14}{}}
\@writefile{toc}{\contentsline {subsubsection}{Cinematica diretta}{6}{section*.18}}
\newlabel{header-n170}{{}{6}{Cinematica diretta}{section*.18}{}}
\@writefile{lof}{\contentsline {figure}{\numberline {4}{\ignorespaces rappresentazione dati caricati da Assimp.\relax }}{7}{figure.caption.17}}
\newlabel{img:nodiAssimp}{{4}{7}{rappresentazione dati caricati da Assimp.\relax }{figure.caption.17}{}}
\@writefile{toc}{\contentsline {subsubsection}{Shadow map}{7}{section*.19}}
\newlabel{header-n182}{{}{7}{Shadow map}{section*.19}{}}
\@writefile{loa}{\contentsline {algorithm}{\numberline {1}{\ignorespaces Calcolo ricorsivo cinematica diretta\relax }}{7}{algorithm.1}}
\newlabel{euclid}{{1}{7}{Calcolo ricorsivo cinematica diretta\relax }{algorithm.1}{}}
\newlabel{algo:cinematica_diretta}{{1}{7}{Calcolo ricorsivo cinematica diretta\relax }{algorithm.1}{}}
\@writefile{lof}{\contentsline {figure}{\numberline {5}{\ignorespaces texture prodotta calcolando la z depth dal punto di vista della luce.\relax }}{8}{figure.caption.20}}
\@writefile{lof}{\contentsline {figure}{\numberline {6}{\ignorespaces effetto finale delle ombre, inserite nel modello di illuminazione.\relax }}{8}{figure.caption.20}}
\newlabel{img:sssCristalli}{{6}{8}{effetto finale delle ombre, inserite nel modello di illuminazione.\relax }{figure.caption.20}{}}
\@writefile{lof}{\contentsline {figure}{\numberline {7}{\ignorespaces esempio di calcolo delle ombre.\relax }}{8}{figure.caption.21}}
\@writefile{lof}{\contentsline {figure}{\numberline {8}{\ignorespaces \textit  {SubSurfaceScattering} applicato ai cristalli. Nelle due immagini possiamo vedere la differenza dell'effetto tra due angolazioni diverse.\relax }}{9}{figure.caption.23}}
\newlabel{img:sssCristalli}{{8}{9}{\textit {SubSurfaceScattering} applicato ai cristalli. Nelle due immagini possiamo vedere la differenza dell'effetto tra due angolazioni diverse.\relax }{figure.caption.23}{}}
\@writefile{toc}{\contentsline {subsection}{Cristalli}{9}{section*.22}}
\newlabel{header-n200}{{}{9}{Cristalli}{section*.22}{}}
\@writefile{toc}{\contentsline {subsubsection}{Subsurface Scattering}{9}{section*.24}}
\newlabel{header-n203}{{}{9}{Subsurface Scattering}{section*.24}{}}
\@writefile{loa}{\contentsline {algorithm}{\numberline {2}{\ignorespaces Calcolo SubSurfaceScattaering\relax }}{9}{algorithm.2}}
\newlabel{euclid}{{2}{9}{Calcolo SubSurfaceScattaering\relax }{algorithm.2}{}}
\newlabel{algo:sss}{{2}{9}{Calcolo SubSurfaceScattaering\relax }{algorithm.2}{}}
\@writefile{lof}{\contentsline {figure}{\numberline {9}{\ignorespaces funzionamento \textit  {SubSurfaceScattering} in Frostbite Engine.\relax }}{10}{figure.caption.25}}
\@writefile{toc}{\contentsline {subsection}{Cristalli}{10}{section*.26}}
\newlabel{header-n200}{{}{10}{Cristalli}{section*.26}{}}
\bibcite{c1}{1}
\bibcite{c2}{2}
\bibcite{c3}{3}
\bibcite{c3}{4}
\bibcite{c4}{5}
\@writefile{lof}{\contentsline {figure}{\numberline {10}{\ignorespaces thickness map dei cristalli.\relax }}{11}{figure.caption.27}}
\newlabel{img:thicknessMap}{{10}{11}{thickness map dei cristalli.\relax }{figure.caption.27}{}}
\@writefile{lof}{\contentsline {figure}{\numberline {11}{\ignorespaces : albedo map dei cristalli.\relax }}{11}{figure.caption.27}}
\newlabel{img:albedoMap}{{11}{11}{: albedo map dei cristalli.\relax }{figure.caption.27}{}}
\newlabel{paper:GPU}{{1}{11}{\refname }{section*.28}{}}
\newlabel{paper:FrostbiteEngine}{{2}{11}{\refname }{section*.28}{}}
